{
  "appId": "com.aris.capacitor_http",
  "appName": "Capacitor HTTP",
  "bundledWebRuntime": false,
  "npmClient": "npm",
  "webDir": "build",
  "plugins": {
    "SplashScreen": {
      "launchShowDuration": 0
    }
  },
  "cordova": {}
}
